%YAML 1.1
%TAG !u! tag:unity3d.com,2011:
--- !u!1 &2663050430181795541
GameObject:
  m_ObjectHideFlags: 0
  m_CorrespondingSourceObject: {fileID: 0}
  m_PrefabInstance: {fileID: 0}
  m_PrefabAsset: {fileID: 0}
  serializedVersion: 6
  m_Component:
  - component: {fileID: 4830083399222845668}
  - component: {fileID: 3655786438082983849}
  - component: {fileID: 892191051113813280}
  - component: {fileID: 6633263175533866145}
  - component: {fileID: 3321461585204289920}
  m_Layer: 0
  m_Name: Lamp
  m_TagString: Untagged
  m_Icon: {fileID: 0}
  m_NavMeshLayer: 0
  m_StaticEditorFlags: 0
  m_IsActive: 1
--- !u!4 &4830083399222845668
Transform:
  m_ObjectHideFlags: 0
  m_CorrespondingSourceObject: {fileID: 0}
  m_PrefabInstance: {fileID: 0}
  m_PrefabAsset: {fileID: 0}
  m_GameObject: {fileID: 2663050430181795541}
  m_LocalRotation: {x: 0.70710677, y: -0, z: -0, w: 0.7071068}
  m_LocalPosition: {x: 8.25, y: 7, z: -23.062496}
  m_LocalScale: {x: 1, y: 1, z: 1}
  m_Children: []
  m_Father: {fileID: 0}
  m_RootOrder: 0
  m_LocalEulerAnglesHint: {x: 90.00001, y: 0, z: 0}
--- !u!33 &3655786438082983849
MeshFilter:
  m_ObjectHideFlags: 0
  m_CorrespondingSourceObject: {fileID: 0}
  m_PrefabInstance: {fileID: 0}
  m_PrefabAsset: {fileID: 0}
  m_GameObject: {fileID: 2663050430181795541}
  m_Mesh: {fileID: 0}
--- !u!23 &892191051113813280
MeshRenderer:
  m_ObjectHideFlags: 0
  m_CorrespondingSourceObject: {fileID: 0}
  m_PrefabInstance: {fileID: 0}
  m_PrefabAsset: {fileID: 0}
  m_GameObject: {fileID: 2663050430181795541}
  m_Enabled: 1
  m_CastShadows: 1
  m_ReceiveShadows: 1
  m_DynamicOccludee: 1
  m_MotionVectors: 1
  m_LightProbeUsage: 1
  m_ReflectionProbeUsage: 1
  m_RenderingLayerMask: 1
  m_RendererPriority: 0
  m_Materials:
  - {fileID: 2100000, guid: c6fc0c0fb45ba2240839e2aa11d05884, type: 2}
  - {fileID: 2100000, guid: 8c5a786585f74a24792a42d8d7faa4b9, type: 2}
  m_StaticBatchInfo:
    firstSubMesh: 0
    subMeshCount: 0
  m_StaticBatchRoot: {fileID: 0}
  m_ProbeAnchor: {fileID: 0}
  m_LightProbeVolumeOverride: {fileID: 0}
  m_ScaleInLightmap: 1
  m_ReceiveGI: 1
  m_PreserveUVs: 0
  m_IgnoreNormalsForChartDetection: 0
  m_ImportantGI: 0
  m_StitchLightmapSeams: 1
  m_SelectedEditorRenderState: 2
  m_MinimumChartSize: 4
  m_AutoUVMaxDistance: 0.5
  m_AutoUVMaxAngle: 89
  m_LightmapParameters: {fileID: 0}
  m_SortingLayerID: 0
  m_SortingLayer: 0
  m_SortingOrder: 0
--- !u!114 &6633263175533866145
MonoBehaviour:
  m_ObjectHideFlags: 0
  m_CorrespondingSourceObject: {fileID: 0}
  m_PrefabInstance: {fileID: 0}
  m_PrefabAsset: {fileID: 0}
  m_GameObject: {fileID: 2663050430181795541}
  m_Enabled: 1
  m_EditorHideFlags: 0
  m_Script: {fileID: 11500000, guid: 8233d90336aea43098adf6dbabd606a2, type: 3}
  m_Name: 
  m_EditorClassIdentifier: 
  m_MeshFormatVersion: 1
  m_Faces:
  - m_Indexes: 000000000100000002000000010000000300000002000000
    m_SmoothingGroup: 0
    m_Uv:
      m_UseWorldSpace: 0
      m_FlipU: 0
      m_FlipV: 0
      m_SwapUV: 0
      m_Fill: 1
      m_Scale: {x: 1, y: 1}
      m_Offset: {x: 0, y: 0}
      m_Rotation: 0
      m_Anchor: 9
    m_Material: {fileID: 0}
    m_SubmeshIndex: 1
    m_ManualUV: 0
    elementGroup: -1
    m_TextureGroup: -1
  - m_Indexes: 040000000500000006000000050000000700000006000000
    m_SmoothingGroup: 0
    m_Uv:
      m_UseWorldSpace: 0
      m_FlipU: 0
      m_FlipV: 0
      m_SwapUV: 0
      m_Fill: 1
      m_Scale: {x: 1, y: 1}
      m_Offset: {x: 0, y: 0}
      m_Rotation: 0
      m_Anchor: 9
    m_Material: {fileID: 0}
    m_SubmeshIndex: 0
    m_ManualUV: 0
    elementGroup: -1
    m_TextureGroup: -1
  - m_Indexes: 08000000090000000a000000090000000b0000000a000000
    m_SmoothingGroup: 0
    m_Uv:
      m_UseWorldSpace: 0
      m_FlipU: 0
      m_FlipV: 0
      m_SwapUV: 0
      m_Fill: 1
      m_Scale: {x: 1, y: 1}
      m_Offset: {x: 0, y: 0}
      m_Rotation: 0
      m_Anchor: 9
    m_Material: {fileID: 0}
    m_SubmeshIndex: 0
    m_ManualUV: 0
    elementGroup: -1
    m_TextureGroup: -1
  - m_Indexes: 0c0000000d0000000e0000000d0000000f0000000e000000
    m_SmoothingGroup: 0
    m_Uv:
      m_UseWorldSpace: 0
      m_FlipU: 0
      m_FlipV: 0
      m_SwapUV: 0
      m_Fill: 1
      m_Scale: {x: 1, y: 1}
      m_Offset: {x: 0, y: 0}
      m_Rotation: 0
      m_Anchor: 9
    m_Material: {fileID: 0}
    m_SubmeshIndex: 0
    m_ManualUV: 0
    elementGroup: -1
    m_TextureGroup: -1
  - m_Indexes: 100000001100000012000000110000001300000012000000
    m_SmoothingGroup: 0
    m_Uv:
      m_UseWorldSpace: 0
      m_FlipU: 0
      m_FlipV: 0
      m_SwapUV: 0
      m_Fill: 1
      m_Scale: {x: 1, y: 1}
      m_Offset: {x: 0, y: 0}
      m_Rotation: 0
      m_Anchor: 9
    m_Material: {fileID: 0}
    m_SubmeshIndex: 0
    m_ManualUV: 0
    elementGroup: -1
    m_TextureGroup: -1
  m_SharedVertices:
  - m_Vertices: 000000000900000012000000
  - m_Vertices: 010000000400000013000000
  - m_Vertices: 020000000b0000000c000000
  - m_Vertices: 03000000060000000d000000
  - m_Vertices: 0500000011000000
  - m_Vertices: 070000000f000000
  - m_Vertices: 0800000010000000
  - m_Vertices: 0a0000000e000000
  m_SharedTextures: []
  m_Positions:
  - {x: -0.5, y: 0.375, z: -0.87499905}
  - {x: 1.5000038, y: 0.375, z: -0.875}
  - {x: -0.5, y: 0.625, z: -0.87499905}
  - {x: 1.5000038, y: 0.625, z: -0.875}
  - {x: 1.5000038, y: 0.375, z: -0.875}
  - {x: 1.5000038, y: 0.25, z: -1}
  - {x: 1.5000038, y: 0.625, z: -0.875}
  - {x: 1.5, y: 0.7499924, z: -0.9999962}
  - {x: -0.5, y: 0.25, z: -0.99999905}
  - {x: -0.5, y: 0.375, z: -0.87499905}
  - {x: -0.5000038, y: 0.7499924, z: -0.99999523}
  - {x: -0.5, y: 0.625, z: -0.87499905}
  - {x: -0.5, y: 0.625, z: -0.87499905}
  - {x: 1.5000038, y: 0.625, z: -0.875}
  - {x: -0.5000038, y: 0.7499924, z: -0.99999523}
  - {x: 1.5, y: 0.7499924, z: -0.9999962}
  - {x: -0.5, y: 0.25, z: -0.99999905}
  - {x: 1.5000038, y: 0.25, z: -1}
  - {x: -0.5, y: 0.375, z: -0.87499905}
  - {x: 1.5000038, y: 0.375, z: -0.875}
  m_Textures0:
  - {x: 0.49999958, y: 0.375}
  - {x: -1.5000042, y: 0.375}
  - {x: 0.49999958, y: 0.625}
  - {x: -1.5000042, y: 0.625}
  - {x: -0.875, y: 0.375}
  - {x: -1, y: 0.25}
  - {x: -0.875, y: 0.625}
  - {x: -0.9999962, y: 0.7499924}
  - {x: 1.0000029, y: 0.2500038}
  - {x: 0.87500286, y: 0.3750038}
  - {x: 0.99999905, y: 0.7499962}
  - {x: 0.87500286, y: 0.6250038}
  - {x: 0.49999958, y: 1.0606624}
  - {x: -1.5000042, y: 1.0606624}
  - {x: 0.50000334, y: 1.237431}
  - {x: -1.5000005, y: 1.237431}
  - {x: 0.49999952, y: -0.53032964}
  - {x: -1.5000043, y: -0.53032964}
  - {x: 0.49999958, y: -0.3535529}
  - {x: -1.5000042, y: -0.3535529}
  m_Textures2: []
  m_Textures3: []
  m_Tangents:
  - {x: -1, y: 0, z: 0.00000047683625, w: -1}
  - {x: -1, y: 0, z: 0.00000047683625, w: -1}
  - {x: -1, y: 0, z: 0.00000047683625, w: -1}
  - {x: -1, y: 0, z: 0.00000047683625, w: -1}
  - {x: 0, y: 0, z: 1, w: -1}
  - {x: 0.000011444528, y: 0, z: 1, w: -1}
  - {x: 0.000011444528, y: 0, z: 1, w: -1}
  - {x: 0.000022889057, y: 0, z: 1, w: -1}
  - {x: -0.000007629569, y: 0, z: -1, w: -1}
  - {x: -0.00001907404, y: 0, z: -1, w: -1}
  - {x: -0.00001907404, y: 0, z: -1, w: -1}
  - {x: -0.00003051851, y: 0, z: -1, w: -1}
  - {x: -1, y: 0, z: 0.00000047683625, w: -1}
  - {x: -1, y: 0, z: 0.00000047683625, w: -1}
  - {x: -1, y: 0, z: 0.00000047683625, w: -1}
  - {x: -1, y: -2.0097491e-14, z: 0.00000047683622, w: -1}
  - {x: -1, y: 0, z: 0.00000047683625, w: -1}
  - {x: -1, y: 0, z: 0.00000047683625, w: -1}
  - {x: -1, y: 0, z: 0.00000047683625, w: -1}
  - {x: -1, y: 0, z: 0.00000047683625, w: -1}
  m_Colors: []
  m_UnwrapParameters:
    m_HardAngle: 88
    m_PackMargin: 20
    m_AngleError: 8
    m_AreaError: 15
  m_PreserveMeshAssetOnDestroy: 0
  assetGuid: 
  m_IsSelectable: 1
  m_SelectedFaces: 
  m_SelectedEdges: []
  m_SelectedVertices: 
--- !u!64 &3321461585204289920
MeshCollider:
  m_ObjectHideFlags: 0
  m_CorrespondingSourceObject: {fileID: 0}
  m_PrefabInstance: {fileID: 0}
  m_PrefabAsset: {fileID: 0}
  m_GameObject: {fileID: 2663050430181795541}
  m_Material: {fileID: 0}
  m_IsTrigger: 0
  m_Enabled: 1
  serializedVersion: 3
  m_Convex: 0
  m_CookingOptions: 14
  m_Mesh: {fileID: 0}
