# ProBuilder 4.2.1
# https://unity3d.com/unity/features/worldbuilding/probuilder
# 16.10.2020 15:14:40

mtllib ./Wall_Room2_3rd_(103).mtl
o Wall_Room2_3rd (103)

g Wall_Room2_3rd (103)
v -59.87506 35 12 1 1 1
v -59.87505 39 12 1 1 1
v -59.87505 35 9 1 1 1
v -59.87505 39 9 1 1 1

vt 0 0
vt 0 1
vt 0.7168415 0
vt 0.7168415 1

vn 1 -2.861025E-06 3.467007E-06

usemtl Gray_snaps002

usemtl Labour_Wall_Smooth_1
f 3/3/1 4/4/1 2/2/1 1/1/1

